{
    "top_cord": [{
        "brand": {
            "cord_count": 8,
            "item_count": 20,
            "id": "18",
            "name_ja": "Dickies",
            "name_en": "Dickies",
            "label": "dickies",
            "img": "http:\/\/event.rakuten.co.jp\/fashion\/rba\/girlsaward\/img\/2015aw\/brand\/dickies.jpg",
            "img_sp": "http:\/\/event.rakuten.co.jp\/fashion\/rba\/girlsaward\/img\/2015aw\/brand\/dickies-s.jpg",
            "up_status": true,
            "new_status": false,
            "global_status": false,
            "remarks": "",
            "last_updated_by": "2",
            "deleted_at": null,
            "created_at": "1445220958",
            "updated_at": "1445667636"
        },
        "model": {
            "id": "11",
            "name_ja": "\u77f3\u7530\u30cb\u30b3\u30eb",
            "name_en": "ISHIDA NICOLE",
            "name_kana": "\u3044\u3057\u3060\u306b\u3053\u308b",
            "img": "",
            "status": "1",
            "remarks": "",
            "last_updated_by": "3",
            "deleted_at": null,
            "created_at": "1443177881",
            "updated_at": "1445564511"
        },
        "img": "http:\/\/event.rakuten.co.jp\/fashion\/rba\/girlsaward\/img\/2015aw\/cord\/dickies_01.jpg",
        "photo_status": true,
        "up_status": true,
        "global_status": false,
        "items": [{
            "id": "651",
            "name_ja": "\u30d7\u30ea\u30f3\u30c8S\/S-\uff34\u30b7\u30e3\u30c4",
            "name_en": "",
            "name_cn": "",
            "name_tw": "",
            "price_ja": "3996",
            "price_en": "0",
            "price_cn": "0",
            "price_tw": "0",
            "url": "b93881",
            "img": "http:\/\/image.aubg.jp\/mgen\/stylife:scripts\/resize.ms?img=stylife:\/images\/item\/B93\/B93881\/B93881-01_1.jpg\u0026w=380\u0026h=503\u0026q=85\u0026c=0xFFFFFF\u0026t=jpg",
            "brand_id": "18",
            "translate_status": false,
            "sold_status": false,
            "remarks": "",
            "last_updated_by": "1",
            "deleted_at": null,
            "created_at": "1444902689",
            "updated_at": null
        }, {
            "id": "652",
            "name_ja": "\u88cf\u8d77\u6bdb\u30d7\u30ea\u30f3\u30c8\u30bf\u30a4\u30c8\u30b9\u30ab\u30fc\u30c8",
            "name_en": "",
            "name_cn": "",
            "name_tw": "",
            "price_ja": "3780",
            "price_en": "0",
            "price_cn": "0",
            "price_tw": "0",
            "url": "b93885",
            "img": "http:\/\/image.aubg.jp\/mgen\/stylife:scripts\/resize.ms?img=stylife:\/images\/item\/B93\/B93885\/B93885-01_1.jpg\u0026w=380\u0026h=503\u0026q=85\u0026c=0xFFFFFF\u0026t=jpg",
            "brand_id": "18",
            "translate_status": false,
            "sold_status": false,
            "remarks": "",
            "last_updated_by": "1",
            "deleted_at": null,
            "created_at": "1444902689",
            "updated_at": null
        }]
    }, {
        "brand": {
            "cord_count": 6,
            "item_count": 13,
            "id": "10",
            "name_ja": "EMODA",
            "name_en": "EMODA",
            "label": "emoda",
            "img": "http:\/\/event.rakuten.co.jp\/fashion\/rba\/girlsaward\/img\/2015aw\/brand\/emoda.jpg",
            "img_sp": "http:\/\/event.rakuten.co.jp\/fashion\/rba\/girlsaward\/img\/2015aw\/brand\/emoda-s.jpg",
            "up_status": true,
            "new_status": false,
            "global_status": true,
            "remarks": "",
            "last_updated_by": "2",
            "deleted_at": null,
            "created_at": "1444016228",
            "updated_at": "1445684075"
        },
        "model": {
            "id": "2",
            "name_ja": "\u9ebb\u5bae\u5f69\u5e0c",
            "name_en": "ASAMIYA SAKI",
            "name_kana": "\u3042\u3055\u307f\u3084\u3055\u304d",
            "img": "",
            "status": "1",
            "remarks": "",
            "last_updated_by": "3",
            "deleted_at": null,
            "created_at": "1443177881",
            "updated_at": "1445564469"
        },
        "img": "http:\/\/event.rakuten.co.jp\/fashion\/rba\/girlsaward\/img\/2015aw\/cord\/emoda_01.jpg",
        "photo_status": true,
        "up_status": true,
        "global_status": true,
        "items": [{
            "id": "393",
            "name_ja": "BULKY BOLUM KNIT TOP",
            "name_en": "Sweater",
            "name_cn": "\u6bdb\u8863",
            "name_tw": "\u6bdb\u8863",
            "price_ja": "7452",
            "price_en": "0",
            "price_cn": "0",
            "price_tw": "0",
            "url": "b93582",
            "img": "http:\/\/thumbnail.image.rakuten.co.jp\/@0_mall\/stylife\/cabinet\/item\/582\/b93582-02_1.jpg?_ex=400x537\u0026s=2\u0026r=1",
            "brand_id": "10",
            "translate_status": true,
            "sold_status": false,
            "remarks": "",
            "last_updated_by": "1",
            "deleted_at": null,
            "created_at": "1444902689",
            "updated_at": null
        }, {
            "id": "394",
            "name_ja": "SIDE all ZIP RIB SK",
            "name_en": "Tight Skirt",
            "name_cn": "\u7d27\u88d9\u5b50",
            "name_tw": "\u71c8\u7c60\u8932",
            "price_ja": "6372",
            "price_en": "0",
            "price_cn": "0",
            "price_tw": "0",
            "url": "b93583",
            "img": "http:\/\/thumbnail.image.rakuten.co.jp\/@0_mall\/stylife\/cabinet\/item\/583\/b93583-07_1.jpg?_ex=400x537\u0026s=2\u0026r=1",
            "brand_id": "10",
            "translate_status": true,
            "sold_status": false,
            "remarks": "",
            "last_updated_by": "1",
            "deleted_at": null,
            "created_at": "1444902689",
            "updated_at": null
        }, {
            "id": "395",
            "name_ja": "POINTED SQUAREHEEL PUMPS",
            "name_en": "Pumps",
            "name_cn": "\u5706\u5934\u5e73\u5e95\u978b",
            "name_tw": "\u5713\u982d\u5e73\u5e95\u978b",
            "price_ja": "10584",
            "price_en": "0",
            "price_cn": "0",
            "price_tw": "0",
            "url": "b93585",
            "img": "http:\/\/thumbnail.image.rakuten.co.jp\/@0_mall\/stylife\/cabinet\/item\/585\/b93585-04_1.jpg?_ex=400x537\u0026s=2\u0026r=1",
            "brand_id": "10",
            "translate_status": true,
            "sold_status": false,
            "remarks": "",
            "last_updated_by": "1",
            "deleted_at": null,
            "created_at": "1444902689",
            "updated_at": null
        }]
    }, {
        "brand": {
            "cord_count": 11,
            "item_count": 29,
            "id": "8",
            "name_ja": "GUILD PRIME",
            "name_en": "GUILD PRIME",
            "label": "guildprime",
            "img": "http:\/\/event.rakuten.co.jp\/fashion\/rba\/girlsaward\/img\/2015aw\/brand\/guildprime.jpg",
            "img_sp": "http:\/\/event.rakuten.co.jp\/fashion\/rba\/girlsaward\/img\/2015aw\/brand\/guildprime-s.jpg",
            "up_status": true,
            "new_status": false,
            "global_status": true,
            "remarks": "",
            "last_updated_by": "2",
            "deleted_at": null,
            "created_at": "1444016184",
            "updated_at": "1445667621"
        },
        "model": {
            "id": "33",
            "name_ja": "\u5317\u5ddd\u666f\u5b50",
            "name_en": "KITAGAWA KEIKO",
            "name_kana": "\u304d\u305f\u304c\u308f\u3051\u3044\u3053",
            "img": "",
            "status": "1",
            "remarks": "",
            "last_updated_by": "3",
            "deleted_at": null,
            "created_at": "1443177881",
            "updated_at": "1445564629"
        },
        "img": "http:\/\/event.rakuten.co.jp\/fashion\/rba\/girlsaward\/img\/2015aw\/cord\/guildprime_01.jpg",
        "photo_status": true,
        "up_status": true,
        "global_status": true,
        "items": [{
            "id": "355",
            "name_ja": "\u30ab\u30e9\u30fc\u30d6\u30ed\u30c3\u30af\u30c9\u30c3\u30c8\u30b7\u30e3\u30c4",
            "name_en": "Blouses",
            "name_cn": "\u6761\u7eb9\u6ce2\u70b9\u56fe\u6848\u4e0a\u8863",
            "name_tw": "\u689d\u7d0b\u6ce2\u9ede\u5716\u6848\u4e0a\u8863",
            "price_ja": "16200",
            "price_en": "0",
            "price_cn": "0",
            "price_tw": "0",
            "url": "b86297",
            "img": "http:\/\/thumbnail.image.rakuten.co.jp\/@0_mall\/stylife\/cabinet\/item\/297\/b86297-01_1.jpg?_ex=400x537\u0026s=2\u0026r=1",
            "brand_id": "8",
            "translate_status": true,
            "sold_status": false,
            "remarks": "",
            "last_updated_by": "1",
            "deleted_at": null,
            "created_at": "1444902689",
            "updated_at": null
        }, {
            "id": "356",
            "name_ja": "\u30dc\u30d8\u30df\u30a2\u30f3\u30d5\u30a1\u30fc\u30d9\u30b9\u30c8",
            "name_en": "Fur Vest",
            "name_cn": "\u6bdb\u76ae\u80cc\u5fc3",
            "name_tw": "\u6bdb\u76ae\u80cc\u5fc3",
            "price_ja": "47520",
            "price_en": "0",
            "price_cn": "0",
            "price_tw": "0",
            "url": "b86903",
            "img": "http:\/\/thumbnail.image.rakuten.co.jp\/@0_mall\/stylife\/cabinet\/item\/903\/b86903-01_1.jpg?_ex=400x537\u0026s=2\u0026r=1",
            "brand_id": "8",
            "translate_status": true,
            "sold_status": true,
            "remarks": "",
            "last_updated_by": "4",
            "deleted_at": null,
            "created_at": "1444902689",
            "updated_at": "1445584365"
        }, {
            "id": "357",
            "name_ja": "\u30ed\u30f3\u30b0\u30ac\u30a6\u30f3\u30b3\u30fc\u30c8",
            "name_en": "Long Coat",
            "name_cn": "\u957f\u5927\u8863",
            "name_tw": "\u9577\u5927\u8863",
            "price_ja": "23760",
            "price_en": "0",
            "price_cn": "0",
            "price_tw": "0",
            "url": "b86906",
            "img": "http:\/\/thumbnail.image.rakuten.co.jp\/@0_mall\/stylife\/cabinet\/item\/906\/b86906-03_1.jpg?_ex=400x537\u0026s=2\u0026r=1",
            "brand_id": "8",
            "translate_status": true,
            "sold_status": false,
            "remarks": "",
            "last_updated_by": "1",
            "deleted_at": null,
            "created_at": "1444902689",
            "updated_at": null
        }]
    }, {
        "brand": {
            "cord_count": 6,
            "item_count": 20,
            "id": "12",
            "name_ja": "GYDA",
            "name_en": "GYDA",
            "label": "gyda",
            "img": "http:\/\/event.rakuten.co.jp\/fashion\/rba\/girlsaward\/img\/2015aw\/brand\/gyda.jpg",
            "img_sp": "http:\/\/event.rakuten.co.jp\/fashion\/rba\/girlsaward\/img\/2015aw\/brand\/gyda-s.jpg",
            "up_status": true,
            "new_status": false,
            "global_status": true,
            "remarks": "",
            "last_updated_by": "2",
            "deleted_at": null,
            "created_at": "1444016263",
            "updated_at": "1445684087"
        },
        "model": {
            "id": "25",
            "name_ja": "\u5927\u5c4b\u590f\u5357",
            "name_en": "OYA KANA",
            "name_kana": "\u304a\u304a\u3084\u304b\u306a",
            "img": "http:\/\/event.rakuten.co.jp\/fashion\/rba\/girlsaward\/img\/2015aw\/model\/ooya_kana.jpg",
            "status": "0",
            "remarks": "",
            "last_updated_by": "1",
            "deleted_at": null,
            "created_at": "1443177881",
            "updated_at": null
        },
        "img": "http:\/\/event.rakuten.co.jp\/fashion\/rba\/girlsaward\/img\/2015aw\/cord\/gyda_01.jpg",
        "photo_status": true,
        "up_status": true,
        "global_status": true,
        "items": [{
            "id": "631",
            "name_ja": "BIG\u30ab\u30e9\u30fc\u30b7\u30e7\u30fc\u30eb\u30b3\u30fc\u30c8",
            "name_en": "Long Coat",
            "name_cn": "\u957f\u5927\u8863",
            "name_tw": "\u9577\u5927\u8863",
            "price_ja": "19429",
            "price_en": "0",
            "price_cn": "0",
            "price_tw": "0",
            "url": "b67468",
            "img": "http:\/\/thumbnail.image.rakuten.co.jp\/@0_mall\/stylife\/cabinet\/item\/468\/b67468-03_1.jpg?_ex=400x537\u0026s=2\u0026r=1",
            "brand_id": "12",
            "translate_status": true,
            "sold_status": false,
            "remarks": "",
            "last_updated_by": "1",
            "deleted_at": null,
            "created_at": "1444902689",
            "updated_at": null
        }, {
            "id": "632",
            "name_ja": "\u30bf\u30fc\u30c8\u30ebBIGKT",
            "name_en": "Knit",
            "name_cn": "\u9ad8\u9886\u9488\u7ec7\u4e0a\u8863",
            "name_tw": "\u9ad8\u9818\u91dd\u7e54\u51b7\u886b",
            "price_ja": "8629",
            "price_en": "0",
            "price_cn": "0",
            "price_tw": "0",
            "url": "b86721",
            "img": "http:\/\/thumbnail.image.rakuten.co.jp\/@0_mall\/stylife\/cabinet\/item\/721\/b86721-03_1.jpg?_ex=320x320\u0026s=2\u0026r=1",
            "brand_id": "12",
            "translate_status": true,
            "sold_status": false,
            "remarks": "",
            "last_updated_by": "1",
            "deleted_at": null,
            "created_at": "1444902689",
            "updated_at": null
        }, {
            "id": "633",
            "name_ja": "\u30ef\u30f3\u30a6\u30a9\u30c3\u30b7\u30e5\u30b9\u30ad\u30cb-",
            "name_en": "Jeans",
            "name_cn": "\u8d34\u811a\u725b\u4ed4\u88e4",
            "name_tw": "\u8cbc\u8173\u725b\u4ed4\u8932",
            "price_ja": "10789",
            "price_en": "0",
            "price_cn": "0",
            "price_tw": "0",
            "url": "b05145",
            "img": "http:\/\/thumbnail.image.rakuten.co.jp\/@0_mall\/stylife\/cabinet\/item\/145\/b05145-05_1.jpg?_ex=400x537\u0026s=2\u0026r=1",
            "brand_id": "12",
            "translate_status": true,
            "sold_status": false,
            "remarks": "",
            "last_updated_by": "1",
            "deleted_at": null,
            "created_at": "1444902689",
            "updated_at": null
        }]
    }, {
        "brand": {
            "cord_count": 6,
            "item_count": 17,
            "id": "2",
            "name_ja": "Heather",
            "name_en": "Heather",
            "label": "heather",
            "img": "http:\/\/event.rakuten.co.jp\/fashion\/rba\/girlsaward\/img\/2015aw\/brand\/heather.jpg",
            "img_sp": "http:\/\/event.rakuten.co.jp\/fashion\/rba\/girlsaward\/img\/2015aw\/brand\/heather-s.jpg",
            "up_status": true,
            "new_status": false,
            "global_status": true,
            "remarks": "",
            "last_updated_by": "2",
            "deleted_at": null,
            "created_at": "1444016002",
            "updated_at": "1445667629"
        },
        "model": {
            "id": "99",
            "name_ja": "\u5bae\u57ce\u821e",
            "name_en": "MIYAGI MAI",
            "name_kana": "\u307f\u3084\u304e\u307e\u3044",
            "img": "",
            "status": "1",
            "remarks": "",
            "last_updated_by": "1",
            "deleted_at": null,
            "created_at": "1443177881",
            "updated_at": null
        },
        "img": "http:\/\/event.rakuten.co.jp\/fashion\/rba\/girlsaward\/img\/2015aw\/cord\/heather_01.jpg",
        "photo_status": true,
        "up_status": true,
        "global_status": true,
        "items": [{
            "id": "436",
            "name_ja": "M*F\u30d5\u30a1\u30fcBIG\u30e9\u30da\u30eb\u30b8\u30e3\u30b1\u30c3\u30c8",
            "name_en": "Fur Jacket",
            "name_cn": "\u6bdb\u76ae\u5939\u514b",
            "name_tw": "\u6bdb\u76ae\u5927\u8863",
            "price_ja": "10584",
            "price_en": "0",
            "price_cn": "0",
            "price_tw": "0",
            "url": "b86865",
            "img": "http:\/\/thumbnail.image.rakuten.co.jp\/@0_mall\/heather\/cabinet\/item\/865\/b86865-01_1.jpg?_ex=400x537\u0026s=2\u0026r=1",
            "brand_id": "2",
            "translate_status": false,
            "sold_status": false,
            "remarks": "",
            "last_updated_by": "1",
            "deleted_at": null,
            "created_at": "1444902689",
            "updated_at": null
        }, {
            "id": "437",
            "name_ja": "\u30a2\u30bd\u30fc\u30c8\u30c0\u30e1\u30fc\u30b8\u30dc\u30fc\u30a4\u30d5\u30ec\u30f3\u30c9\u30d1\u30f3\u30c4",
            "name_en": "Jeans",
            "name_cn": "\u8d34\u5e03\u725b\u4ed4\u88e4",
            "name_tw": "\u8cbc\u5e03\u725b\u4ed4\u8932",
            "price_ja": "7452",
            "price_en": "0",
            "price_cn": "0",
            "price_tw": "0",
            "url": "b68332",
            "img": "http:\/\/thumbnail.image.rakuten.co.jp\/@0_mall\/heather\/cabinet\/item\/332\/b68332-01_1.jpg?_ex=400x537\u0026s=2\u0026r=1",
            "brand_id": "2",
            "translate_status": false,
            "sold_status": false,
            "remarks": "",
            "last_updated_by": "1",
            "deleted_at": null,
            "created_at": "1444902689",
            "updated_at": null
        }, {
            "id": "438",
            "name_ja": "\u30dc\u30c8\u30eb\u30cd\u30c3\u30af\u30a4\u30f3\u30ca\u30fc",
            "name_en": "Cut and Sewn",
            "name_cn": "\u9488\u7ec7\u4e0a\u8863",
            "name_tw": "\u91dd\u7e54\u4e0a\u8863",
            "price_ja": "4212",
            "price_en": "0",
            "price_cn": "0",
            "price_tw": "0",
            "url": "b71069",
            "img": "http:\/\/thumbnail.image.rakuten.co.jp\/@0_mall\/heather\/cabinet\/item\/069\/b71069-01_1.jpg?_ex=400x537\u0026s=2\u0026r=1",
            "brand_id": "2",
            "translate_status": false,
            "sold_status": false,
            "remarks": "",
            "last_updated_by": "1",
            "deleted_at": null,
            "created_at": "1444902689",
            "updated_at": null
        }]
    }, {
        "brand": {
            "cord_count": 10,
            "item_count": 34,
            "id": "3",
            "name_ja": "JEANASIS",
            "name_en": "JEANASIS",
            "label": "jeanasis",
            "img": "http:\/\/event.rakuten.co.jp\/fashion\/rba\/girlsaward\/img\/2015aw\/brand\/jeanasis.jpg",
            "img_sp": "http:\/\/event.rakuten.co.jp\/fashion\/rba\/girlsaward\/img\/2015aw\/brand\/jeanasis-s.jpg",
            "up_status": true,
            "new_status": false,
            "global_status": true,
            "remarks": "",
            "last_updated_by": "1",
            "deleted_at": null,
            "created_at": "1444016035",
            "updated_at": "1445686500"
        },
        "model": {
            "id": "117",
            "name_ja": "\u4e2d\u6751\u30a2\u30f3",
            "name_en": "NAKAMURA ANNE",
            "name_kana": "\u306a\u304b\u3080\u3089\u3042\u3093",
            "img": "",
            "status": "1",
            "remarks": "",
            "last_updated_by": "4",
            "deleted_at": null,
            "created_at": "1445310333",
            "updated_at": "1445518778"
        },
        "img": "http:\/\/event.rakuten.co.jp\/fashion\/rba\/girlsaward\/img\/2015aw\/cord\/jeanasis_01.jpg",
        "photo_status": true,
        "up_status": true,
        "global_status": true,
        "items": [{
            "id": "672",
            "name_ja": "3G\u30b9\u30c8\u30ec\u30c3\u30c1\u30d5\u30fc\u30c9CD ",
            "name_en": "Cardigan",
            "name_cn": "\u5f00\u895f\u957f\u8eab\u6bdb\u8863",
            "name_tw": "\u958b\u895f\u9577\u8eab\u6bdb\u8863",
            "price_ja": "8100",
            "price_en": "0",
            "price_cn": "0",
            "price_tw": "0",
            "url": "b84869",
            "img": "http:\/\/thumbnail.image.rakuten.co.jp\/@0_mall\/jeanasis\/cabinet\/item\/869\/b84869-02_1.jpg?_ex=400x537\u0026s=2\u0026r=1",
            "brand_id": "3",
            "translate_status": true,
            "sold_status": false,
            "remarks": "",
            "last_updated_by": "2",
            "deleted_at": null,
            "created_at": "1444902689",
            "updated_at": "1445571504"
        }, {
            "id": "673",
            "name_ja": "\u30ea\u30d6\u30bf\u30a4\u30c8\u30cf\u30a4\u30cd\u30c3\u30afLS ",
            "name_en": "Cut and Sewn",
            "name_cn": "\u957f\u8896\u5957\u8863",
            "name_tw": "\u9577\u8896\u5957\u8863",
            "price_ja": "3240",
            "price_en": "0",
            "price_cn": "0",
            "price_tw": "0",
            "url": "b68930",
            "img": "http:\/\/thumbnail.image.rakuten.co.jp\/@0_mall\/jeanasis\/cabinet\/item\/930\/b68930-03_1.jpg?_ex=400x537\u0026s=2\u0026r=1",
            "brand_id": "3",
            "translate_status": true,
            "sold_status": false,
            "remarks": "",
            "last_updated_by": "2",
            "deleted_at": null,
            "created_at": "1444902689",
            "updated_at": "1445571526"
        }, {
            "id": "674",
            "name_ja": "\u30b8\u30e3\u30ac\u30fc\u30c9SP ",
            "name_en": "Shorts",
            "name_cn": "\u6c11\u65cf\u98ce\u77ed\u88e4",
            "name_tw": "\u6c11\u65cf\u98a8\u77ed\u8932",
            "price_ja": "5940",
            "price_en": "0",
            "price_cn": "0",
            "price_tw": "0",
            "url": "b65243",
            "img": "http:\/\/thumbnail.image.rakuten.co.jp\/@0_mall\/jeanasis\/cabinet\/item\/243\/b65243-01_1.jpg?_ex=400x537\u0026s=2\u0026r=1",
            "brand_id": "3",
            "translate_status": true,
            "sold_status": false,
            "remarks": "",
            "last_updated_by": "2",
            "deleted_at": null,
            "created_at": "1444902689",
            "updated_at": "1445571560"
        }]
    }, {
        "brand": {
            "cord_count": 9,
            "item_count": 20,
            "id": "5",
            "name_ja": "JILL by JILLSTUART",
            "name_en": "JILL by JILLSTUART",
            "label": "jillbyjillstuart",
            "img": "http:\/\/event.rakuten.co.jp\/fashion\/rba\/girlsaward\/img\/2015aw\/brand\/jill.jpg",
            "img_sp": "http:\/\/event.rakuten.co.jp\/fashion\/rba\/girlsaward\/img\/2015aw\/brand\/jill-s.jpg",
            "up_status": true,
            "new_status": false,
            "global_status": false,
            "remarks": "",
            "last_updated_by": "2",
            "deleted_at": null,
            "created_at": "1444016111",
            "updated_at": "1445671325"
        },
        "model": {
            "id": "67",
            "name_ja": "\u7389\u57ce\u30c6\u30a3\u30ca",
            "name_en": "TAMASHIRO TINA",
            "name_kana": "\u305f\u307e\u3057\u308d\u3066\u3043\u306a",
            "img": "http:\/\/event.rakuten.co.jp\/fashion\/rba\/girlsaward\/img\/2015aw\/model\/tamashiro_tina.jpg",
            "status": "0",
            "remarks": "",
            "last_updated_by": "1",
            "deleted_at": null,
            "created_at": "1443177881",
            "updated_at": null
        },
        "img": "http:\/\/event.rakuten.co.jp\/fashion\/rba\/girlsaward\/img\/2015aw\/cord\/jillbyjillstuart_01.jpg",
        "photo_status": true,
        "up_status": true,
        "global_status": false,
        "items": [{
            "id": "301",
            "name_ja": "LOTTIE TARTAN",
            "name_en": "",
            "name_cn": "",
            "name_tw": "",
            "price_ja": "17280",
            "price_en": "0",
            "price_cn": "0",
            "price_tw": "0",
            "url": "b89564",
            "img": "http:\/\/thumbnail.image.rakuten.co.jp\/@0_mall\/stylife\/cabinet\/item\/564\/b89564-01_1.jpg?_ex=400x537\u0026s=2\u0026r=1",
            "brand_id": "5",
            "translate_status": false,
            "sold_status": false,
            "remarks": "",
            "last_updated_by": "1",
            "deleted_at": null,
            "created_at": "1444902689",
            "updated_at": null
        }, {
            "id": "302",
            "name_ja": "FLAT HANDLE BOSTON",
            "name_en": "",
            "name_cn": "",
            "name_tw": "",
            "price_ja": "10476",
            "price_en": "0",
            "price_cn": "0",
            "price_tw": "0",
            "url": "b85521",
            "img": "http:\/\/thumbnail.image.rakuten.co.jp\/@0_mall\/stylife\/cabinet\/item\/521\/b85521-03_1.jpg?_ex=400x537\u0026s=2\u0026r=1",
            "brand_id": "5",
            "translate_status": false,
            "sold_status": false,
            "remarks": "",
            "last_updated_by": "1",
            "deleted_at": null,
            "created_at": "1444902689",
            "updated_at": null
        }, {
            "id": "713",
            "name_ja": "ACTRESS\u3000HAT",
            "name_en": "",
            "name_cn": "",
            "name_tw": "",
            "price_ja": "6912",
            "price_en": "0",
            "price_cn": "0",
            "price_tw": "0",
            "url": "b96291",
            "img": "http:\/\/thumbnail.image.rakuten.co.jp\/@0_mall\/stylife\/cabinet\/item\/291\/b96291-02_1.jpg?_ex=400x537\u0026s=2\u0026r=1",
            "brand_id": "5",
            "translate_status": false,
            "sold_status": false,
            "remarks": "",
            "last_updated_by": "4",
            "deleted_at": null,
            "created_at": "1446713769",
            "updated_at": null
        }]
    }, {
        "brand": {
            "cord_count": 9,
            "item_count": 24,
            "id": "7",
            "name_ja": "LOVELESS",
            "name_en": "LOVELESS",
            "label": "loveless",
            "img": "http:\/\/event.rakuten.co.jp\/fashion\/rba\/girlsaward\/img\/2015aw\/brand\/loveless.jpg",
            "img_sp": "http:\/\/event.rakuten.co.jp\/fashion\/rba\/girlsaward\/img\/2015aw\/brand\/loveless-s.jpg",
            "up_status": true,
            "new_status": false,
            "global_status": true,
            "remarks": "",
            "last_updated_by": "1",
            "deleted_at": null,
            "created_at": "1444016166",
            "updated_at": "1445692345"
        },
        "model": {
            "id": "90",
            "name_ja": "\u30de\u30ae\u30fc",
            "name_en": "MAGGY",
            "name_kana": "\u307e\u304e\u30fc",
            "img": "http:\/\/event.rakuten.co.jp\/fashion\/rba\/girlsaward\/img\/2015aw\/model\/maggy.jpg",
            "status": "0",
            "remarks": "",
            "last_updated_by": "1",
            "deleted_at": null,
            "created_at": "1443177881",
            "updated_at": null
        },
        "img": "http:\/\/event.rakuten.co.jp\/fashion\/rba\/girlsaward\/img\/2015aw\/cord\/loveless_01.jpg",
        "photo_status": true,
        "up_status": true,
        "global_status": true,
        "items": [{
            "id": "277",
            "name_ja": "\u30d4\u30f3\u30b9\u30c8\u30e9\u30a4\u30d7\u30b0\u30ec\u30fc\u30b9\u30b8\u30e3\u30b1\u30c3\u30c8",
            "name_en": "Jacket",
            "name_cn": "\u897f\u88c5\u5939\u514b",
            "name_tw": "\u897f\u88dd\u5916\u5957",
            "price_ja": "42120",
            "price_en": "0",
            "price_cn": "0",
            "price_tw": "0",
            "url": "b86279",
            "img": "http:\/\/thumbnail.image.rakuten.co.jp\/@0_mall\/stylife\/cabinet\/item\/279\/b86279-01_1.jpg?_ex=400x537\u0026s=2\u0026r=1",
            "brand_id": "7",
            "translate_status": false,
            "sold_status": false,
            "remarks": "",
            "last_updated_by": "4",
            "deleted_at": null,
            "created_at": "1444902689",
            "updated_at": "1445585669"
        }, {
            "id": "278",
            "name_ja": "\u30d4\u30f3\u30b9\u30c8\u30e9\u30a4\u30d7\u30ef\u30a4\u30c9\u30d1\u30f3\u30c4",
            "name_en": "Wide Pants",
            "name_cn": "\u6761\u7eb9\u5bbd\u88e4\u5b50",
            "name_tw": "\u689d\u7d0b\u5bec\u8932\u5b50",
            "price_ja": "19440",
            "price_en": "0",
            "price_cn": "0",
            "price_tw": "0",
            "url": "b86370",
            "img": "http:\/\/thumbnail.image.rakuten.co.jp\/@0_mall\/stylife\/cabinet\/item\/370\/b86370-01_1.jpg?_ex=400x537\u0026s=2\u0026r=1",
            "brand_id": "7",
            "translate_status": false,
            "sold_status": false,
            "remarks": "",
            "last_updated_by": "1",
            "deleted_at": null,
            "created_at": "1444902689",
            "updated_at": null
        }, {
            "id": "279",
            "name_ja": "\u30b9\u30d1\u30f3\u30b3\u30fc\u30eb\u30dc\u30a6\u30bf\u30a4\u30b7\u30e3\u30c4",
            "name_en": "Shirt",
            "name_cn": "\u9886\u5e26\u886c\u8863",
            "name_tw": "\u9818\u5454\u6064\u886b",
            "price_ja": "17280",
            "price_en": "0",
            "price_cn": "0",
            "price_tw": "0",
            "url": "b86355",
            "img": "http:\/\/thumbnail.image.rakuten.co.jp\/@0_mall\/stylife\/cabinet\/item\/355\/b86355-01_1.jpg?_ex=400x537\u0026s=2\u0026r=1",
            "brand_id": "7",
            "translate_status": false,
            "sold_status": false,
            "remarks": "",
            "last_updated_by": "1",
            "deleted_at": null,
            "created_at": "1444902689",
            "updated_at": null
        }]
    }, {
        "brand": {
            "cord_count": 12,
            "item_count": 25,
            "id": "1",
            "name_ja": "LOWRYS FARM",
            "name_en": "LOWRYS FARM",
            "label": "lowrysfarm",
            "img": "http:\/\/event.rakuten.co.jp\/fashion\/rba\/girlsaward\/img\/2015aw\/brand\/lowrysfarm.jpg",
            "img_sp": "http:\/\/event.rakuten.co.jp\/fashion\/rba\/girlsaward\/img\/2015aw\/brand\/lowrysfarm-s.jpg",
            "up_status": true,
            "new_status": false,
            "global_status": true,
            "remarks": "",
            "last_updated_by": "2",
            "deleted_at": null,
            "created_at": "1444015969",
            "updated_at": "1445678881"
        },
        "model": {
            "id": "19",
            "name_ja": "emma",
            "name_en": "emma",
            "name_kana": "\u3048\u307e",
            "img": "",
            "status": "1",
            "remarks": "",
            "last_updated_by": "3",
            "deleted_at": null,
            "created_at": "1443177881",
            "updated_at": "1445564540"
        },
        "img": "http:\/\/event.rakuten.co.jp\/fashion\/rba\/girlsaward\/img\/2015aw\/cord\/lowrysfarm_01.jpg",
        "photo_status": true,
        "up_status": true,
        "global_status": true,
        "items": [{
            "id": "403",
            "name_ja": "AW\u30cb\u30c3\u30c8\u30ef\u30c3\u30c1",
            "name_en": "Hat",
            "name_cn": "\u51b7\u5e3d",
            "name_tw": "\u51b7\u5e3d",
            "price_ja": "1944",
            "price_en": "0",
            "price_cn": "0",
            "price_tw": "0",
            "url": "b69627",
            "img": "http:\/\/thumbnail.image.rakuten.co.jp\/@0_mall\/lowrysfarm\/cabinet\/item\/627\/b69627-07_1.jpg?_ex=400x537\u0026s=2\u0026r=1",
            "brand_id": "1",
            "translate_status": false,
            "sold_status": false,
            "remarks": "",
            "last_updated_by": "1",
            "deleted_at": null,
            "created_at": "1444902689",
            "updated_at": null
        }, {
            "id": "708",
            "name_ja": "\u30a2\u30bd\u30fc\u30c8\u30ef\u30a4\u30c9\u30d1\u30f3\u30c4",
            "name_en": "Assorted Wide Pants",
            "name_cn": "\u76f4\u7eb9\u9614\u817f\u88e4",
            "name_tw": "\u76f4\u7d0b\u95ca\u8eab\u9577\u8932",
            "price_ja": "5292",
            "price_en": "0",
            "price_cn": "0",
            "price_tw": "0",
            "url": "b96792",
            "img": "http:\/\/thumbnail.image.rakuten.co.jp\/@0_mall\/stylife\/cabinet\/item\/792\/b96792-05_1.jpg?_ex=400x537\u0026s=2\u0026r=1",
            "brand_id": "1",
            "translate_status": false,
            "sold_status": false,
            "remarks": "",
            "last_updated_by": "4",
            "deleted_at": null,
            "created_at": "1446712216",
            "updated_at": "1446712246"
        }]
    }, {
        "brand": {
            "cord_count": 6,
            "item_count": 17,
            "id": "11",
            "name_ja": "MURUA",
            "name_en": "MURUA",
            "label": "murua",
            "img": "http:\/\/event.rakuten.co.jp\/fashion\/rba\/girlsaward\/img\/2015aw\/brand\/murua.jpg",
            "img_sp": "http:\/\/event.rakuten.co.jp\/fashion\/rba\/girlsaward\/img\/2015aw\/brand\/murua-s.jpg",
            "up_status": true,
            "new_status": false,
            "global_status": true,
            "remarks": "",
            "last_updated_by": "2",
            "deleted_at": null,
            "created_at": "1444016247",
            "updated_at": "1445684132"
        },
        "model": {
            "id": "49",
            "name_ja": "\u4f50\u539f\u30e2\u30cb\u30ab",
            "name_en": "SAHARA MONICA",
            "name_kana": "\u3055\u306f\u3089\u3082\u306b\u304b",
            "img": "http:\/\/event.rakuten.co.jp\/fashion\/rba\/girlsaward\/img\/2015aw\/model\/sahara_monica.jpg",
            "status": "0",
            "remarks": "",
            "last_updated_by": "1",
            "deleted_at": null,
            "created_at": "1443177881",
            "updated_at": null
        },
        "img": "http:\/\/event.rakuten.co.jp\/fashion\/rba\/girlsaward\/img\/2015aw\/cord\/murua_01.jpg",
        "photo_status": true,
        "up_status": true,
        "global_status": true,
        "items": [{
            "id": "222",
            "name_ja": "\u3010CASUAL\u3011\u30e2\u30c3\u30b5\u30a6\u30fc\u30ebP\/CT",
            "name_en": "Pea Coat",
            "name_cn": "\u6c34\u5175\u77ed\u5916\u8863",
            "name_tw": "\u6c34\u5175\u77ed\u5916\u8863",
            "price_ja": "18360",
            "price_en": "0",
            "price_cn": "0",
            "price_tw": "0",
            "url": "b93986",
            "img": "http:\/\/thumbnail.image.rakuten.co.jp\/@0_mall\/stylife\/cabinet\/item\/986\/b93986-01_1.jpg?_ex=400x537\u0026s=2\u0026r=1",
            "brand_id": "11",
            "translate_status": false,
            "sold_status": false,
            "remarks": "",
            "last_updated_by": "1",
            "deleted_at": null,
            "created_at": "1444902689",
            "updated_at": null
        }, {
            "id": "224",
            "name_ja": "\u3010CASUAL\u3011\u30d8\u30e0\u30af\u30e9\u30c3\u30b7\u30e5\u30c7\u30cb\u30e0\u30d5\u30ec\u30a2SK",
            "name_en": "Denim Skirt",
            "name_cn": "\u725b\u4ed4\u5e03\u88d9\u5b50",
            "name_tw": "\u725b\u4ed4\u5e03\u88d9\u5b50",
            "price_ja": "11340",
            "price_en": "0",
            "price_cn": "0",
            "price_tw": "0",
            "url": "b89855",
            "img": "http:\/\/thumbnail.image.rakuten.co.jp\/@0_mall\/stylife\/cabinet\/item\/855\/b89855-03_1.jpg?_ex=400x537\u0026s=2\u0026r=1",
            "brand_id": "11",
            "translate_status": false,
            "sold_status": false,
            "remarks": "",
            "last_updated_by": "1",
            "deleted_at": null,
            "created_at": "1444902689",
            "updated_at": null
        }, {
            "id": "225",
            "name_ja": "\u3010FEMININE\u3011fit\u30ea\u30d6\u30bf\u30fc\u30c8\u30eb",
            "name_en": "Turtle Neck Sweater",
            "name_cn": "\u5957\u5934\u9886\u6bdb\u8863",
            "name_tw": "\u5957\u982d\u9818\u6bdb\u8863",
            "price_ja": "5940",
            "price_en": "0",
            "price_cn": "0",
            "price_tw": "0",
            "url": "b64677",
            "img": "http:\/\/thumbnail.image.rakuten.co.jp\/@0_mall\/stylife\/cabinet\/item\/677\/b64677-01_1.jpg?_ex=400x537\u0026s=2\u0026r=1",
            "brand_id": "11",
            "translate_status": false,
            "sold_status": false,
            "remarks": "",
            "last_updated_by": "1",
            "deleted_at": null,
            "created_at": "1444902689",
            "updated_at": null
        }]
    }, {
        "brand": {
            "cord_count": 11,
            "item_count": 20,
            "id": "17",
            "name_ja": "MillionCarats",
            "name_en": "MillionCarats",
            "label": "million",
            "img": "http:\/\/event.rakuten.co.jp\/fashion\/rba\/girlsaward\/img\/2015aw\/brand\/million.jpg",
            "img_sp": "http:\/\/event.rakuten.co.jp\/fashion\/rba\/girlsaward\/img\/2015aw\/brand\/million-s.jpg",
            "up_status": true,
            "new_status": false,
            "global_status": false,
            "remarks": "",
            "last_updated_by": "1",
            "deleted_at": null,
            "created_at": "1444016400",
            "updated_at": "1445682360"
        },
        "model": {
            "id": "81",
            "name_ja": "\u6a4b\u672c\u30de\u30ca\u30df",
            "name_en": "HASHIMOTO MANAMI",
            "name_kana": "\u306f\u3057\u3082\u3068\u307e\u306a\u307f",
            "img": "",
            "status": "1",
            "remarks": "",
            "last_updated_by": "1",
            "deleted_at": null,
            "created_at": "1443177881",
            "updated_at": null
        },
        "img": "http:\/\/event.rakuten.co.jp\/fashion\/rba\/girlsaward\/img\/2015aw\/cord\/million_01.jpg",
        "photo_status": true,
        "up_status": true,
        "global_status": false,
        "items": [{
            "id": "238",
            "name_ja": "\u30d3\u30b8\u30e5\u30fc\u30cd\u30c3\u30af\u30ec\u30b9\u30ef\u30f3\u30d4",
            "name_en": "",
            "name_cn": "",
            "name_tw": "",
            "price_ja": "49680",
            "price_en": "0",
            "price_cn": "0",
            "price_tw": "0",
            "url": "b39590",
            "img": "http:\/\/thumbnail.image.rakuten.co.jp\/@0_mall\/stylife\/cabinet\/item\/590\/b39590-01_1.jpg?_ex=400x537\u0026s=2\u0026r=1",
            "brand_id": "17",
            "translate_status": false,
            "sold_status": false,
            "remarks": "",
            "last_updated_by": "1",
            "deleted_at": null,
            "created_at": "1444902689",
            "updated_at": null
        }]
    }, {
        "brand": {
            "cord_count": 14,
            "item_count": 47,
            "id": "6",
            "name_ja": "OLIVE des OLIVE",
            "name_en": "OLIVE des OLIVE",
            "label": "olivedesolive",
            "img": "http:\/\/event.rakuten.co.jp\/fashion\/rba\/girlsaward\/img\/2015aw\/brand\/olive_des_olive.jpg",
            "img_sp": "http:\/\/event.rakuten.co.jp\/fashion\/rba\/girlsaward\/img\/2015aw\/brand\/olive-s.jpg",
            "up_status": true,
            "new_status": false,
            "global_status": false,
            "remarks": "",
            "last_updated_by": "1",
            "deleted_at": null,
            "created_at": "1444016148",
            "updated_at": "1445682345"
        },
        "model": {
            "id": "125",
            "name_ja": "\u65b0\u6728\u512a\u5b50",
            "name_en": "ARAKI YUKO",
            "name_kana": "\u3042\u3089\u304d\u3086\u3046\u3053",
            "img": "",
            "status": "1",
            "remarks": "",
            "last_updated_by": "3",
            "deleted_at": null,
            "created_at": "1445312957",
            "updated_at": "1445564497"
        },
        "img": "http:\/\/event.rakuten.co.jp\/fashion\/rba\/girlsaward\/img\/2015aw\/cord\/olivedesolive_01.jpg",
        "photo_status": true,
        "up_status": true,
        "global_status": false,
        "items": [{
            "id": "178",
            "name_ja": "\u30aa\u30fc\u30ac\u30f3\u30b8\u30fc\u30d7\u30ea\u30fc\u30c4\u30b9\u30ab\u30fc\u30c8",
            "name_en": "",
            "name_cn": "",
            "name_tw": "",
            "price_ja": "6372",
            "price_en": "0",
            "price_cn": "0",
            "price_tw": "0",
            "url": "b86779",
            "img": "http:\/\/image.aubg.jp\/mgen\/web:scripts\/resize.ms?img=stylife:\/images\/item\/B86\/B86779\/B86779-03_1.jpg",
            "brand_id": "6",
            "translate_status": false,
            "sold_status": false,
            "remarks": "",
            "last_updated_by": "1",
            "deleted_at": null,
            "created_at": "1444902689",
            "updated_at": null
        }, {
            "id": "179",
            "name_ja": "\u30cd\u30c3\u30af\u30b9\u30ab\u30e9\u30c3\u30d7\u7d30\u30b1\u30fc\u30d6\u30eb\u30d7\u30eb\u30aa\u30fc\u30d0\u30fc",
            "name_en": "",
            "name_cn": "",
            "name_tw": "",
            "price_ja": "3780",
            "price_en": "0",
            "price_cn": "0",
            "price_tw": "0",
            "url": "b86785",
            "img": "http:\/\/image.aubg.jp\/mgen\/web:scripts\/resize.ms?img=stylife:\/images\/item\/B86\/B86785\/B86785-01_1.jpg",
            "brand_id": "6",
            "translate_status": false,
            "sold_status": false,
            "remarks": "",
            "last_updated_by": "1",
            "deleted_at": null,
            "created_at": "1444902689",
            "updated_at": null
        }, {
            "id": "180",
            "name_ja": "\u887f\u53d6\u308a\u5916\u3057\u30ce\u30fc\u30ab\u30e9\u30fc\u30b3\u30fc\u30c8 ",
            "name_en": "",
            "name_cn": "",
            "name_tw": "",
            "price_ja": "9612",
            "price_en": "0",
            "price_cn": "0",
            "price_tw": "0",
            "url": "b86797",
            "img": "http:\/\/image.aubg.jp\/mgen\/web:scripts\/resize.ms?img=stylife:\/images\/item\/B86\/B86797\/B86797-05_1.jpg",
            "brand_id": "6",
            "translate_status": false,
            "sold_status": false,
            "remarks": "",
            "last_updated_by": "1",
            "deleted_at": null,
            "created_at": "1444902689",
            "updated_at": null
        }]
    }, {
        "brand": {
            "cord_count": 12,
            "item_count": 53,
            "id": "16",
            "name_ja": "REDYAZEL",
            "name_en": "REDYAZEL",
            "label": "redyazel",
            "img": "http:\/\/event.rakuten.co.jp\/fashion\/rba\/girlsaward\/img\/2015aw\/brand\/redyazel.jpg",
            "img_sp": "http:\/\/event.rakuten.co.jp\/fashion\/rba\/girlsaward\/img\/2015aw\/brand\/redyazel-s.jpg",
            "up_status": true,
            "new_status": false,
            "global_status": false,
            "remarks": "",
            "last_updated_by": "1",
            "deleted_at": null,
            "created_at": "1444016349",
            "updated_at": "1445682372"
        },
        "model": {
            "id": "117",
            "name_ja": "\u4e2d\u6751\u30a2\u30f3",
            "name_en": "NAKAMURA ANNE",
            "name_kana": "\u306a\u304b\u3080\u3089\u3042\u3093",
            "img": "",
            "status": "1",
            "remarks": "",
            "last_updated_by": "4",
            "deleted_at": null,
            "created_at": "1445310333",
            "updated_at": "1445518778"
        },
        "img": "http:\/\/event.rakuten.co.jp\/fashion\/rba\/girlsaward\/img\/2015aw\/cord\/redyazel_01.jpg",
        "photo_status": true,
        "up_status": true,
        "global_status": false,
        "items": [{
            "id": "568",
            "name_ja": "\u30a6\u30fc\u30eb\u30ec\u30c8\u30ed\u30b3\u30af\u30fc\u30f3\u30ef\u30f3\u30d4\u30fc\u30b9",
            "name_en": "",
            "name_cn": "",
            "name_tw": "",
            "price_ja": "9612",
            "price_en": "0",
            "price_cn": "0",
            "price_tw": "0",
            "url": "b96939",
            "img": "http:\/\/thumbnail.image.rakuten.co.jp\/@0_mall\/stylife\/cabinet\/item\/939\/b96939-05_1.jpg?_ex=400x537\u0026s=2\u0026r=1",
            "brand_id": "16",
            "translate_status": false,
            "sold_status": false,
            "remarks": "",
            "last_updated_by": "9",
            "deleted_at": null,
            "created_at": "1444902689",
            "updated_at": "1445584238"
        }, {
            "id": "569",
            "name_ja": "\u539a\u5e95\u30a2\u30f3\u30af\u30eb\u30d6\u30fc\u30c6\u30a3",
            "name_en": "",
            "name_cn": "",
            "name_tw": "",
            "price_ja": "8532",
            "price_en": "0",
            "price_cn": "0",
            "price_tw": "0",
            "url": "b96940",
            "img": "http:\/\/thumbnail.image.rakuten.co.jp\/@0_mall\/stylife\/cabinet\/item\/940\/b96940-03_1.jpg?_ex=400x537\u0026s=2\u0026r=1",
            "brand_id": "16",
            "translate_status": false,
            "sold_status": false,
            "remarks": "",
            "last_updated_by": "9",
            "deleted_at": null,
            "created_at": "1444902689",
            "updated_at": "1445584252"
        }, {
            "id": "570",
            "name_ja": "\u30d5\u30a1\u30fc\u30c1\u30a7\u30fc\u30f3BAG",
            "name_en": "",
            "name_cn": "",
            "name_tw": "",
            "price_ja": "7452",
            "price_en": "0",
            "price_cn": "0",
            "price_tw": "0",
            "url": "b96941",
            "img": "http:\/\/thumbnail.image.rakuten.co.jp\/@0_mall\/stylife\/cabinet\/item\/941\/b96941-03_1.jpg?_ex=400x537\u0026s=2\u0026r=1",
            "brand_id": "16",
            "translate_status": false,
            "sold_status": false,
            "remarks": "",
            "last_updated_by": "9",
            "deleted_at": null,
            "created_at": "1444902689",
            "updated_at": "1445584274"
        }]
    }, {
        "brand": {
            "cord_count": 4,
            "item_count": 6,
            "id": "9",
            "name_ja": "RESEXXY",
            "name_en": "RESEXXY",
            "label": "resexxy",
            "img": "http:\/\/event.rakuten.co.jp\/fashion\/rba\/girlsaward\/img\/2015aw\/brand\/resexy.jpg",
            "img_sp": "http:\/\/event.rakuten.co.jp\/fashion\/rba\/girlsaward\/img\/2015aw\/brand\/resexxy-s.jpg",
            "up_status": true,
            "new_status": false,
            "global_status": true,
            "remarks": "",
            "last_updated_by": "2",
            "deleted_at": null,
            "created_at": "1444016205",
            "updated_at": "1445684102"
        },
        "model": {
            "id": "121",
            "name_ja": "\u85e4\u4e95\u30ea\u30ca",
            "name_en": "FUJII RINA",
            "name_kana": "\u3075\u3058\u3044\u308a\u306a",
            "img": "",
            "status": "1",
            "remarks": "",
            "last_updated_by": "1",
            "deleted_at": null,
            "created_at": "1445311341",
            "updated_at": null
        },
        "img": "http:\/\/event.rakuten.co.jp\/fashion\/rba\/girlsaward\/img\/2015aw\/cord\/resexxy_01.jpg",
        "photo_status": true,
        "up_status": true,
        "global_status": true,
        "items": [{
            "id": "22",
            "name_ja": "\u30ab\u30c3\u30c6\u30a3\u30f3\u30b0\u30d5\u30a7\u30a4\u30af\u30d5\u30a1\u30fc\u30b3\u30fc\u30c8",
            "name_en": "Fur Coat",
            "name_cn": "\u6bdb\u76ae\u5927\u8863",
            "name_tw": "\u6bdb\u76ae\u5927\u8863",
            "price_ja": "16189",
            "price_en": "0",
            "price_cn": "0",
            "price_tw": "0",
            "url": "b72525",
            "img": "http:\/\/thumbnail.image.rakuten.co.jp\/@0_mall\/stylife\/cabinet\/item\/525\/b72525-05_1.jpg?_ex=400x537\u0026s=2\u0026r=1",
            "brand_id": "9",
            "translate_status": false,
            "sold_status": false,
            "remarks": "",
            "last_updated_by": "1",
            "deleted_at": null,
            "created_at": "1444904244",
            "updated_at": "1444906007"
        }]
    }, {
        "brand": {
            "cord_count": 9,
            "item_count": 11,
            "id": "14",
            "name_ja": "Samantha Thavasa",
            "name_en": "Samantha Thavasa",
            "label": "samanthathavasa",
            "img": "http:\/\/event.rakuten.co.jp\/fashion\/rba\/girlsaward\/img\/2015aw\/brand\/thavasa.jpg",
            "img_sp": "http:\/\/event.rakuten.co.jp\/fashion\/rba\/girlsaward\/img\/2015aw\/brand\/thavasa-s.jpg",
            "up_status": true,
            "new_status": false,
            "global_status": false,
            "remarks": "",
            "last_updated_by": "1",
            "deleted_at": null,
            "created_at": "1444016311",
            "updated_at": "1445686510"
        },
        "model": {
            "id": "117",
            "name_ja": "\u4e2d\u6751\u30a2\u30f3",
            "name_en": "NAKAMURA ANNE",
            "name_kana": "\u306a\u304b\u3080\u3089\u3042\u3093",
            "img": "",
            "status": "1",
            "remarks": "",
            "last_updated_by": "4",
            "deleted_at": null,
            "created_at": "1445310333",
            "updated_at": "1445518778"
        },
        "img": "http:\/\/event.rakuten.co.jp\/fashion\/rba\/girlsaward\/img\/2015aw\/cord\/samanthathavasa_01.jpg",
        "photo_status": true,
        "up_status": true,
        "global_status": false,
        "items": [{
            "id": "169",
            "name_ja": "\u30a8\u30e0\u30b7\u30e5\u30b7\u30e5\u3000\u5927",
            "name_en": "",
            "name_cn": "",
            "name_tw": "",
            "price_ja": "41040",
            "price_en": "0",
            "price_cn": "0",
            "price_tw": "0",
            "url": "364950",
            "img": "http:\/\/thumbnail.image.rakuten.co.jp\/@0_mall\/stylife\/cabinet\/item\/950\/364950-04_1.jpg?_ex=400x537\u0026s=2\u0026r=1",
            "brand_id": "14",
            "translate_status": false,
            "sold_status": false,
            "remarks": "",
            "last_updated_by": "9",
            "deleted_at": null,
            "created_at": "1444902689",
            "updated_at": "1445585538"
        }]
    }, {
        "brand": {
            "cord_count": 6,
            "item_count": 17,
            "id": "13",
            "name_ja": "Ungrid",
            "name_en": "Ungrid",
            "label": "ungrid",
            "img": "http:\/\/event.rakuten.co.jp\/fashion\/rba\/girlsaward\/img\/2015aw\/brand\/ungrid.jpg",
            "img_sp": "http:\/\/event.rakuten.co.jp\/fashion\/rba\/girlsaward\/img\/2015aw\/brand\/ungrid-s.jpg",
            "up_status": true,
            "new_status": false,
            "global_status": true,
            "remarks": "",
            "last_updated_by": "2",
            "deleted_at": null,
            "created_at": "1444016286",
            "updated_at": "1445684113"
        },
        "model": {
            "id": "109",
            "name_ja": "\u5c71\u7530\u512a",
            "name_en": "YAMADA YU",
            "name_kana": "\u3084\u307e\u3060\u3086\u3046",
            "img": "",
            "status": "1",
            "remarks": "",
            "last_updated_by": "1",
            "deleted_at": null,
            "created_at": "1443177881",
            "updated_at": null
        },
        "img": "http:\/\/event.rakuten.co.jp\/fashion\/rba\/girlsaward\/img\/2015aw\/cord\/ungrid_01.jpg",
        "photo_status": true,
        "up_status": true,
        "global_status": true,
        "items": [{
            "id": "614",
            "name_ja": "\u30b8\u30e3\u30ac\u30fc\u30c9\u30d5\u30ea\u30f3\u30b8\u30cb\u30c3\u30c8\u30dd\u30f3\u30c1\u30e7",
            "name_en": "Knit",
            "name_cn": "\u6c11\u65cf\u98ce\u62ab\u80a9\u4e0a\u8863",
            "name_tw": "\u6c11\u65cf\u98a8\u62ab\u80a9\u4e0a\u8863",
            "price_ja": "13490",
            "price_en": "0",
            "price_cn": "0",
            "price_tw": "0",
            "url": "b65509",
            "img": "http:\/\/thumbnail.image.rakuten.co.jp\/@0_mall\/ungrid-by-stylife\/cabinet\/item\/509\/b65509-01_1.jpg?_ex=400x537\u0026s=2\u0026r=1",
            "brand_id": "13",
            "translate_status": true,
            "sold_status": false,
            "remarks": "",
            "last_updated_by": "1",
            "deleted_at": null,
            "created_at": "1444902689",
            "updated_at": null
        }, {
            "id": "615",
            "name_ja": "\u30ea\u30d6\u30b3\u30f3\u30d3\u30bf\u30fc\u30c8\u30eb\u30cb\u30c3\u30c8",
            "name_en": "Knit",
            "name_cn": "\u9ad8\u9886\u5957\u5934\u51b7\u886b",
            "name_tw": "\u9ad8\u9818\u5957\u982d\u51b7\u886b",
            "price_ja": "5990",
            "price_en": "0",
            "price_cn": "0",
            "price_tw": "0",
            "url": "b79296",
            "img": "http:\/\/thumbnail.image.rakuten.co.jp\/@0_mall\/ungrid-by-stylife\/cabinet\/item\/296\/b79296-01_1.jpg?_ex=400x537\u0026s=2\u0026r=1",
            "brand_id": "13",
            "translate_status": true,
            "sold_status": false,
            "remarks": "",
            "last_updated_by": "1",
            "deleted_at": null,
            "created_at": "1444902689",
            "updated_at": null
        }, {
            "id": "616",
            "name_ja": "\u30af\u30e9\u30c3\u30b7\u30e5\u30d6\u30ea\u30fc\u30c1\u30b9\u30c8\u30ec\u30fc\u30c8\u30c7\u30cb\u30e0",
            "name_en": "Jeans",
            "name_cn": "\u725b\u4ed4\u88e4",
            "name_tw": "\u725b\u4ed4\u8932",
            "price_ja": "15490",
            "price_en": "0",
            "price_cn": "0",
            "price_tw": "0",
            "url": "b94622",
            "img": "http:\/\/thumbnail.image.rakuten.co.jp\/@0_mall\/ungrid-by-stylife\/cabinet\/item\/622\/b94622-01_1.jpg?_ex=400x537\u0026s=2\u0026r=1",
            "brand_id": "13",
            "translate_status": true,
            "sold_status": false,
            "remarks": "",
            "last_updated_by": "1",
            "deleted_at": null,
            "created_at": "1444902689",
            "updated_at": null
        }]
    }, {
        "brand": {
            "cord_count": 13,
            "item_count": 67,
            "id": "4",
            "name_ja": "WEGO",
            "name_en": "WEGO",
            "label": "wego",
            "img": "http:\/\/event.rakuten.co.jp\/fashion\/rba\/girlsaward\/img\/2015aw\/brand\/wego.jpg",
            "img_sp": "http:\/\/event.rakuten.co.jp\/fashion\/rba\/girlsaward\/img\/2015aw\/brand\/wego-s.jpg",
            "up_status": true,
            "new_status": false,
            "global_status": false,
            "remarks": "",
            "last_updated_by": "1",
            "deleted_at": null,
            "created_at": "1444016084",
            "updated_at": "1445682387"
        },
        "model": {
            "id": "18",
            "name_ja": "\u6c5f\u91ce\u6ca2\u611b\u7f8e",
            "name_en": "ENOSAWA MANAMI",
            "name_kana": "\u3048\u306e\u3055\u308f\u307e\u306a\u307f",
            "img": "http:\/\/event.rakuten.co.jp\/fashion\/rba\/girlsaward\/img\/2015aw\/model\/enosawa_manami.jpg",
            "status": "0",
            "remarks": "",
            "last_updated_by": "1",
            "deleted_at": null,
            "created_at": "1443177881",
            "updated_at": null
        },
        "img": "http:\/\/event.rakuten.co.jp\/fashion\/rba\/girlsaward\/img\/2015aw\/cord\/wego_01.jpg",
        "photo_status": true,
        "up_status": true,
        "global_status": false,
        "items": [{
            "id": "510",
            "name_ja": "(L)knit long cardigan",
            "name_en": "Cardigans",
            "name_cn": "\u5f00\u895f\u6bdb\u8863",
            "name_tw": "\u958b\u895f\u6bdb\u8863",
            "price_ja": "5389",
            "price_en": "0",
            "price_cn": "0",
            "price_tw": "0",
            "url": "b89925",
            "img": "http:\/\/thumbnail.image.rakuten.co.jp\/@0_mall\/wego\/cabinet\/item\/925\/b89925-02_1.jpg?_ex=400x537\u0026s=2\u0026r=1",
            "brand_id": "4",
            "translate_status": false,
            "sold_status": false,
            "remarks": "",
            "last_updated_by": "9",
            "deleted_at": null,
            "created_at": "1444902689",
            "updated_at": "1445585901"
        }, {
            "id": "511",
            "name_ja": "(L)88\u30d1\u30fc\u30ab\u30fc",
            "name_en": "Parker",
            "name_cn": "\u6d3e\u514b",
            "name_tw": "\u6d3e\u514b",
            "price_ja": "2149",
            "price_en": "0",
            "price_cn": "0",
            "price_tw": "0",
            "url": "b84408",
            "img": "http:\/\/thumbnail.image.rakuten.co.jp\/@0_mall\/wego\/cabinet\/item\/408\/b84408-01_1.jpg?_ex=400x537\u0026s=2\u0026r=1",
            "brand_id": "4",
            "translate_status": false,
            "sold_status": false,
            "remarks": "",
            "last_updated_by": "9",
            "deleted_at": null,
            "created_at": "1444902689",
            "updated_at": "1445585915"
        }, {
            "id": "512",
            "name_ja": "(L)\u30d5\u30a7\u30eb\u30c8\u30d9\u30ec\u30fc",
            "name_en": "Hats",
            "name_cn": "\u5e3d\u5b50",
            "name_tw": "\u5e3d\u5b50",
            "price_ja": "1393",
            "price_en": "0",
            "price_cn": "0",
            "price_tw": "0",
            "url": "b63010",
            "img": "http:\/\/thumbnail.image.rakuten.co.jp\/@0_mall\/wego\/cabinet\/item\/010\/b63010-06_1.jpg?_ex=400x537\u0026s=2\u0026r=1",
            "brand_id": "4",
            "translate_status": false,
            "sold_status": false,
            "remarks": "",
            "last_updated_by": "9",
            "deleted_at": null,
            "created_at": "1444902689",
            "updated_at": "1445585946"
        }]
    }]
}
